THX 2기 퀴즈1
…
This is an R Markdown document. Markdown is a simple formatting
syntax for authoring HTML, PDF, and MS Word documents. For more details
on using R Markdown see http://rmarkdown.rstudio.com.

When you click the Knit button a document will be
generated that includes both content as well as the output of any
embedded R code chunks within the document. You can embed an R code
chunk like this:

0. tidyverse, starwars

library(tidyverse)
starwars

## # A tibble: 87 × 14
##    name     height  mass hair_color skin_color eye_color birth_year sex   gender
##    <chr>     <int> <dbl> <chr>      <chr>      <chr>          <dbl> <chr> <chr> 
##  1 Luke Sk…    172    77 blond      fair       blue            19   male  mascu…
##  2 C-3PO       167    75 <NA>       gold       yellow         112   none  mascu…
##  3 R2-D2        96    32 <NA>       white, bl… red             33   none  mascu…
##  4 Darth V…    202   136 none       white      yellow          41.9 male  mascu…
##  5 Leia Or…    150    49 brown      light      brown           19   fema… femin…
##  6 Owen La…    178   120 brown, gr… light      blue            52   male  mascu…
##  7 Beru Wh…    165    75 brown      light      blue            47   fema… femin…
##  8 R5-D4        97    32 <NA>       white, red red             NA   none  mascu…
##  9 Biggs D…    183    84 black      light      brown           24   male  mascu…
## 10 Obi-Wan…    182    77 auburn, w… fair       blue-gray       57   male  mascu…
## # ℹ 77 more rows
## # ℹ 5 more variables: homeworld <chr>, species <chr>, films <list>,
## #   vehicles <list>, starships <list>
…
library(readxl)
library(scales)
library(bbplot)
library(showtext) #번외
showtext_auto()   #번외

2-1 2019년 극장관객수 xlsx 파일을 불러오시오

read_excel() 
 변수명: kobis2019_1excel

## Warning: Expecting numeric in A4551 / R4551C1: got '합계'

## # A tibble: 4,546 × 18
##     순위 영화명   개봉일               매출액 `매출액\n점유율` 누적매출액 관객수
##    <dbl> <chr>    <dttm>                <dbl>            <dbl>      <dbl>  <dbl>
##  1     1 남산의 … 2020-01-22 00:00:00 4.12e10           0.081     4.12e10 4.75e6
##  2     2 다만 악… 2020-08-05 00:00:00 3.86e10           0.076     3.86e10 4.36e6
##  3     3 반도     2020-07-15 00:00:00 3.31e10           0.065     3.31e10 3.81e6
##  4     4 히트맨   2020-01-22 00:00:00 2.06e10           0.04      2.06e10 2.41e6
##  5     5 테넷     2020-08-26 00:00:00 1.84e10           0.036     1.84e10 1.99e6
##  6     6 백두산   2019-12-19 00:00:00 1.69e10           0.033     6.98e10 1.96e6
##  7     7 #살아있… 2020-06-24 00:00:00 1.60e10           0.031     1.60e10 1.90e6
##  8     8 강철비2… 2020-07-29 00:00:00 1.47e10           0.0290    1.47e10 1.79e6
##  9     9 담보     2020-09-29 00:00:00 1.47e10           0.0290    1.47e10 1.72e6
## 10    10 닥터 두… 2020-01-08 00:00:00 1.34e10           0.026     1.34e10 1.61e6
## # ℹ 4,536 more rows
## # ℹ 11 more variables: 누적관객수 <dbl>, 스크린수 <dbl>, 상영횟수 <dbl>,
## #   대표국적 <chr>, 국적 <chr>, 제작사 <chr>, 배급사 <chr>, 등급 <chr>,
## #   장르 <chr>, 감독 <chr>, 배우 <chr>
…
mutate() 
 year() 
 month() 
 day()

2-4 세로줄 “월”에 값이 없는 것들을 제거하고 몇행으로 줄어드는지
확인하시오 (번외)

drop_na()

kobis2019_2date |> 
  drop_na(월)

## # A tibble: 3,021 × 21
##     순위 영화명    연도    월    일 개봉일               매출액 `매출액\n점유율`
##    <dbl> <chr>    <dbl> <dbl> <int> <dttm>                <dbl>            <dbl>
##  1     1 남산의 …  2020     1    22 2020-01-22 00:00:00 4.12e10           0.081 
##  2     2 다만 악…  2020     8     5 2020-08-05 00:00:00 3.86e10           0.076 
##  3     3 반도      2020     7    15 2020-07-15 00:00:00 3.31e10           0.065 
##  4     4 히트맨    2020     1    22 2020-01-22 00:00:00 2.06e10           0.04  
##  5     5 테넷      2020     8    26 2020-08-26 00:00:00 1.84e10           0.036 
##  6     6 백두산    2019    12    19 2019-12-19 00:00:00 1.69e10           0.033 
##  7     7 #살아있…  2020     6    24 2020-06-24 00:00:00 1.60e10           0.031 
##  8     8 강철비2…  2020     7    29 2020-07-29 00:00:00 1.47e10           0.0290
##  9     9 담보      2020     9    29 2020-09-29 00:00:00 1.47e10           0.0290
## 10    10 닥터 두…  2020     1     8 2020-01-08 00:00:00 1.34e10           0.026 
## # ℹ 3,011 more rows
## # ℹ 13 more variables: 누적매출액 <dbl>, 관객수 <dbl>, 누적관객수 <dbl>,
## #   스크린수 <dbl>, 상영횟수 <dbl>, 대표국적 <chr>, 국적 <chr>, 제작사 <chr>,
## #   배급사 <chr>, 등급 <chr>, 장르 <chr>, 감독 <chr>, 배우 <chr>
…
drop_na(월) 
 summarise()

3. 2020년도 극장관객수를 불러오시오

read_excel() 
 변수명: kobis2020_1excel

(read_excel("../5st/excel/rawdata/KOBIS_2020.xlsx", 
  skip = 4) -> kobis2020_1excel)

## Warning: Expecting numeric in A4551 / R4551C1: got '합계'

## # A tibble: 4,546 × 18
##     순위 영화명   개봉일               매출액 `매출액\n점유율` 누적매출액 관객수
##    <dbl> <chr>    <dttm>                <dbl>            <dbl>      <dbl>  <dbl>
##  1     1 남산의 … 2020-01-22 00:00:00 4.12e10           0.081     4.12e10 4.75e6
##  2     2 다만 악… 2020-08-05 00:00:00 3.86e10           0.076     3.86e10 4.36e6
##  3     3 반도     2020-07-15 00:00:00 3.31e10           0.065     3.31e10 3.81e6
##  4     4 히트맨   2020-01-22 00:00:00 2.06e10           0.04      2.06e10 2.41e6
##  5     5 테넷     2020-08-26 00:00:00 1.84e10           0.036     1.84e10 1.99e6
##  6     6 백두산   2019-12-19 00:00:00 1.69e10           0.033     6.98e10 1.96e6
##  7     7 #살아있… 2020-06-24 00:00:00 1.60e10           0.031     1.60e10 1.90e6
##  8     8 강철비2… 2020-07-29 00:00:00 1.47e10           0.0290    1.47e10 1.79e6
##  9     9 담보     2020-09-29 00:00:00 1.47e10           0.0290    1.47e10 1.72e6
## 10    10 닥터 두… 2020-01-08 00:00:00 1.34e10           0.026     1.34e10 1.61e6
## # ℹ 4,536 more rows
## # ℹ 11 more variables: 누적관객수 <dbl>, 스크린수 <dbl>, 상영횟수 <dbl>,
## #   대표국적 <chr>, 국적 <chr>, 제작사 <chr>, 배급사 <chr>, 등급 <chr>,
## #   장르 <chr>, 감독 <chr>, 배우 <chr>
…
4-3 kobis2020_3year 데이터셋과 kobis2019_3year을 하나로
합치시오

full_join() 

full_join(kobis2019_2date, 
  kobis2020_2date)

## Joining with `by = join_by(순위, 영화명, 연도, 월, 일, 개봉일, 매출액,
## `매출액\n점유율`, 누적매출액, 관객수, 누적관객수, 스크린수, 상영횟수, 대표국적,
## 국적, 제작사, 배급사, 등급, 장르, 감독, 배우)`

## # A tibble: 4,546 × 21
##     순위 영화명    연도    월    일 개봉일               매출액 `매출액\n점유율`
##    <dbl> <chr>    <dbl> <dbl> <int> <dttm>                <dbl>            <dbl>
##  1     1 남산의 …  2020     1    22 2020-01-22 00:00:00 4.12e10           0.081 
##  2     2 다만 악…  2020     8     5 2020-08-05 00:00:00 3.86e10           0.076 
##  3     3 반도      2020     7    15 2020-07-15 00:00:00 3.31e10           0.065 
##  4     4 히트맨    2020     1    22 2020-01-22 00:00:00 2.06e10           0.04  
##  5     5 테넷      2020     8    26 2020-08-26 00:00:00 1.84e10           0.036 
##  6     6 백두산    2019    12    19 2019-12-19 00:00:00 1.69e10           0.033 
##  7     7 #살아있…  2020     6    24 2020-06-24 00:00:00 1.60e10           0.031 
##  8     8 강철비2…  2020     7    29 2020-07-29 00:00:00 1.47e10           0.0290
##  9     9 담보      2020     9    29 2020-09-29 00:00:00 1.47e10           0.0290
## 10    10 닥터 두…  2020     1     8 2020-01-08 00:00:00 1.34e10           0.026 
## # ℹ 4,536 more rows
## # ℹ 13 more variables: 누적매출액 <dbl>, 관객수 <dbl>, 누적관객수 <dbl>,
## #   스크린수 <dbl>, 상영횟수 <dbl>, 대표국적 <chr>, 국적 <chr>, 제작사 <chr>,
## #   배급사 <chr>, 등급 <chr>, 장르 <chr>, 감독 <chr>, 배우 <chr>
…
